#Element size	#Merge Sort	#STL Sort	#Insertion Sort
2	0	0	0	
4	0	0	0	
8	0	0	0	
16	0	0	0	
32	0	0	0	
64	0	0	0	
128	0	0	0	
256	0	0	999800	
512	1000500	0	1999200	
1024	1998800	0	9000300	
2048	3000800	999400	33000000	
4096	6999100	999700	129000400	
8192	14029000	2971000	512472400	
